{
    "prepare_queue": {
        "installed": [],
        "uninstalled": []
    },
    "config_munge": {
        "files": {}
    },
    "installed_plugins": {
        "cordova-plugin-console": {
            "PACKAGE_NAME": "com.stacksavings.memorysphere"
        },
        "cordova-plugin-device": {
            "PACKAGE_NAME": "com.stacksavings.memorysphere"
        },
        "cordova-plugin-file-transfer": {
            "PACKAGE_NAME": "com.stacksavings.memorysphere"
        },
        "cordova-plugin-geolocation": {
            "PACKAGE_NAME": "com.stacksavings.memorysphere"
        },
        "cordova-plugin-image-picker": {
            "PACKAGE_NAME": "com.stacksavings.memorysphere"
        },
        "cordova-plugin-whitelist": {
            "PACKAGE_NAME": "com.stacksavings.memorysphere"
        },
        "ionic-plugin-keyboard": {
            "PACKAGE_NAME": "com.stacksavings.memorysphere"
        }
    },
    "dependent_plugins": {
        "cordova-plugin-compat": {
            "PACKAGE_NAME": "com.stacksavings.memorysphere"
        },
        "cordova-plugin-file": {
            "PACKAGE_NAME": "com.stacksavings.memorysphere"
        }
    }
}